{
    "EveCategory": [
        {
            "id": 5,
            "name": "Accessories",
            "published": true
        },
        {
            "id": 6,
            "name": "Ship",
            "published": true
        }
    ],
    "EveConstellation": [
        {
            "eve_region_id": 10000002,
            "id": 20000020,
            "name": "Kimotoro",
            "position_x": -1.3499640046818544e+17,
            "position_y": 6.499945263229326e+16,
            "position_z": 1.0332561731752134e+17
        },
        {
            "eve_region_id": 10000003,
            "id": 20000030,
            "name": "U29-0S",
            "position_x": -6.651313559234448e+16,
            "position_y": 1.063325961132353e+17,
            "position_z": 1.659876958899808e+17
        },
        {
            "eve_region_id": 10000003,
            "id": 20000031,
            "name": "BUG6-X",
            "position_x": -9.537177099347416e+16,
            "position_y": 6.862125741559379e+16,
            "position_z": 1.9806677199508928e+17
        },
        {
            "eve_region_id": 10000003,
            "id": 20000032,
            "name": "OSJ7-I",
            "position_x": -5.008259865005547e+16,
            "position_y": 8.736246129505994e+16,
            "position_z": 1.5878705271773786e+17
        },
        {
            "eve_region_id": 10000003,
            "id": 20000033,
            "name": "DMXN-3",
            "position_x": -9.923376026076944e+16,
            "position_y": 1.3125471789740226e+17,
            "position_z": 2.0977075068533917e+17
        },
        {
            "eve_region_id": 10000003,
            "id": 20000034,
            "name": "I89-EP",
            "position_x": -7.730744609903965e+16,
            "position_y": 9.94297711585087e+16,
            "position_z": 1.9182769575387853e+17
        },
        {
            "eve_region_id": 10000003,
            "id": 20000035,
            "name": "Z-DO53",
            "position_x": -9.597904777088285e+16,
            "position_y": 9.110424339576205e+16,
            "position_z": 1.8798906441757056e+17
        },
        {
            "eve_region_id": 10000003,
            "id": 20000036,
            "name": "YUT3-U",
            "position_x": -9.695956221422798e+16,
            "position_y": 1.1597696532354387e+17,
            "position_z": 1.7817170029235472e+17
        },
        {
            "eve_region_id": 10000003,
            "id": 20000037,
            "name": "5YHF-H",
            "position_x": -6.946072991374507e+16,
            "position_y": 1.0727772880878442e+17,
            "position_z": 2.118618335886068e+17
        },
        {
            "eve_region_id": 10000003,
            "id": 20000038,
            "name": "UK-MI6",
            "position_x": -5.245840737493596e+16,
            "position_y": 1.1674402460221827e+17,
            "position_z": 1.6193990255840835e+17
        },
        {
            "eve_region_id": 10000003,
            "id": 20000039,
            "name": "YDS0-Y",
            "position_x": -3.761108018830502e+16,
            "position_y": 1.0456734021453142e+17,
            "position_z": 1.438897984136382e+17
        },
        {
            "eve_region_id": 10000003,
            "id": 20000040,
            "name": "A3-T8B",
            "position_x": -1.5599951390511778e+16,
            "position_y": 5.820417040751427e+16,
            "position_z": 1.4609491951788573e+17
        },
        {
            "eve_region_id": 10000003,
            "id": 20000041,
            "name": "DILJ-7",
            "position_x": -5.555738867693714e+16,
            "position_y": 1.0399152760449629e+17,
            "position_z": 1.7523533249141254e+17
        },
        {
            "eve_region_id": 10000003,
            "id": 20000042,
            "name": "0-8MWQ",
            "position_x": -1.9710488872023716e+16,
            "position_y": 8.473804130452e+16,
            "position_z": 1.679617169358812e+17
        },
        {
            "eve_region_id": 10000003,
            "id": 20000043,
            "name": "F-V9QW",
            "position_x": -5.465547459085456e+16,
            "position_y": 1.2310867650782578e+17,
            "position_z": 2.1887959335751645e+17
        },
        {
            "eve_region_id": 10000003,
            "id": 20000044,
            "name": "E-8CSQ",
            "position_x": -1514667562461478.0,
            "position_y": 8.165296036273144e+16,
            "position_z": 1.7543590906755082e+17
        },
        {
            "eve_region_id": 10000003,
            "id": 20000045,
            "name": "9KX-M0",
            "position_x": 1.109511358509361e+16,
            "position_y": 9.054197088521344e+16,
            "position_z": 1.6070549292338848e+17
        },
        {
            "eve_region_id": 10000003,
            "id": 20000046,
            "name": "88G-M4",
            "position_x": 7984492458176916.0,
            "position_y": 6.8914220532039656e+16,
            "position_z": 1.68077197075229e+17
        },
        {
            "eve_region_id": 10000043,
            "id": 20000322,
            "name": "Throne Worlds",
            "position_x": -2.1525832688023552e+17,
            "position_y": 3.629541429980755e+16,
            "position_z": -6.656998180725665e+16
        },
        {
            "eve_region_id": 10000030,
            "id": 20000367,
            "name": "Ortner",
            "position_x": -1.0244301858521616e+17,
            "position_y": 4.196754249165811e+16,
            "position_z": -3279331427389417.0
        }
    ],
    "EveGroup": [
        {
            "eve_category_id": 6,
            "id": 26,
            "name": "Cruiser",
            "published": true
        },
        {
            "eve_category_id": 6,
            "id": 898,
            "name": "Black Ops",
            "published": true
        },
        {
            "eve_category_id": 5,
            "id": 1875,
            "name": "PLEX",
            "published": true
        }
    ],
    "EveRegion": [
        {
            "description": "\"The greater the State becomes, the greater humanity under it flourishes.\"",
            "id": 10000002,
            "name": "The Forge"
        },
        {
            "description": "A sprawling region in the galactic \"north,\" the Vale of the Silent has a reputation as one of the most foreboding regions in the cluster. The Guristas pirates who prowl the area, scavenging for resources, do little to dispel the notion that the Vale is a haunted relic of times past. Rumors of secret Jovian experiments in the area abound, though no one has ever given proof of such things. The region is one of the closest areas to Jovian space, despite no longer having any functioning stargates leading there. Many of the other Empires have made attempts to set up spying stations in an attempt to probe out Jovian secrets, but none have lasted long in the harsh area. Now, the area is left totally to capsuleer control and they have proven hardier than those who came before them.",
            "id": 10000003,
            "name": "Vale of the Silent"
        },
        {
            "description": "\"Never Again\"",
            "id": 10000030,
            "name": "Heimatar"
        },
        {
            "description": "\"In God's name, the Amarr have reclaimed the entirety of our world. Now, blessed with the divine mandate of God, we spread our reach unto other worlds. From nearby Hedion, to the distant Misaba, to the burning southern star Penirgman, and all lands in-between. They are our birthright, our duty, our Domain.\"\r\n\r\n<i>- Emperor Heideran III, 21290 AD upon the opening of the first stargate since the collapse. </i>",
            "id": 10000043,
            "name": "Domain"
        }
    ],
    "EveSolarSystem": [
        {
            "enabled_sections": 0,
            "eve_constellation_id": 20000020,
            "eve_star_id": null,
            "id": 30000142,
            "name": "Jita",
            "position_x": -1.2906486173487826e+17,
            "position_y": 6.075530690996363e+16,
            "position_z": 1.1746922706009029e+17,
            "security_status": 0.9459131360054016
        },
        {
            "enabled_sections": 0,
            "eve_constellation_id": 20000030,
            "eve_star_id": null,
            "id": 30000208,
            "name": "LZ-6SU",
            "position_x": -6.817244990099203e+16,
            "position_y": 1.0151241860133485e+17,
            "position_z": 1.6108535541350426e+17,
            "security_status": -0.17278312146663666
        },
        {
            "enabled_sections": 0,
            "eve_constellation_id": 20000030,
            "eve_star_id": null,
            "id": 30000209,
            "name": "MC6O-F",
            "position_x": -6.643849688715733e+16,
            "position_y": 1.1376117831446072e+17,
            "position_z": 1.7564147357345952e+17,
            "security_status": -0.2804349660873413
        },
        {
            "enabled_sections": 0,
            "eve_constellation_id": 20000030,
            "eve_star_id": null,
            "id": 30000210,
            "name": "U54-1L",
            "position_x": -6.908333563953797e+16,
            "position_y": 9.890401391200989e+16,
            "position_z": 1.7356605335837846e+17,
            "security_status": -0.2680697739124298
        },
        {
            "enabled_sections": 0,
            "eve_constellation_id": 20000030,
            "eve_star_id": null,
            "id": 30000211,
            "name": "B-588R",
            "position_x": -7.092216760241217e+16,
            "position_y": 1.0231092220107602e+17,
            "position_z": 1.563339182065021e+17,
            "security_status": -0.15477022528648376
        },
        {
            "enabled_sections": 0,
            "eve_constellation_id": 20000030,
            "eve_star_id": null,
            "id": 30000212,
            "name": "NCGR-Q",
            "position_x": -6.690884101294275e+16,
            "position_y": 1.0888685907867195e+17,
            "position_z": 1.732112040856858e+17,
            "security_status": -0.26051652431488037
        },
        {
            "enabled_sections": 0,
            "eve_constellation_id": 20000030,
            "eve_star_id": null,
            "id": 30000213,
            "name": "G-LOIT",
            "position_x": -6.493964604654382e+16,
            "position_y": 1.0543415344929952e+17,
            "position_z": 1.5973280246718698e+17,
            "security_status": -0.1570093035697937
        },
        {
            "enabled_sections": 0,
            "eve_constellation_id": 20000030,
            "eve_star_id": null,
            "id": 30000214,
            "name": "HE-V4V",
            "position_x": -6.210410358227678e+16,
            "position_y": 1.0566428881652754e+17,
            "position_z": 1.687472128870822e+17,
            "security_status": -0.2144029289484024
        },
        {
            "enabled_sections": 0,
            "eve_constellation_id": 20000031,
            "eve_star_id": null,
            "id": 30000215,
            "name": "N-HSK0",
            "position_x": -9.937419476286896e+16,
            "position_y": 7.552708105339334e+16,
            "position_z": 1.9243241971180778e+17,
            "security_status": -0.3604404628276825
        },
        {
            "enabled_sections": 0,
            "eve_constellation_id": 20000031,
            "eve_star_id": null,
            "id": 30000216,
            "name": "05R-7A",
            "position_x": -9.147404960972197e+16,
            "position_y": 7.70681473600288e+16,
            "position_z": 1.9455499719843568e+17,
            "security_status": -0.4017755389213562
        },
        {
            "enabled_sections": 0,
            "eve_constellation_id": 20000031,
            "eve_star_id": null,
            "id": 30000217,
            "name": "7-UH4Z",
            "position_x": -9.669304270449902e+16,
            "position_y": 6.853550254257268e+16,
            "position_z": 1.963231373947617e+17,
            "security_status": -0.36387133598327637
        },
        {
            "enabled_sections": 0,
            "eve_constellation_id": 20000031,
            "eve_star_id": null,
            "id": 30000218,
            "name": "5ZO-NZ",
            "position_x": -8.930858181167094e+16,
            "position_y": 6.0174367471158776e+16,
            "position_z": 1.919307428527768e+17,
            "security_status": -0.3034608066082001
        },
        {
            "enabled_sections": 0,
            "eve_constellation_id": 20000031,
            "eve_star_id": null,
            "id": 30000219,
            "name": "FS-RFL",
            "position_x": -9.004073339859032e+16,
            "position_y": 7.556496136396565e+16,
            "position_z": 1.9119397117770563e+17,
            "security_status": -0.37081581354141235
        },
        {
            "enabled_sections": 0,
            "eve_constellation_id": 20000031,
            "eve_star_id": null,
            "id": 30000220,
            "name": "Y0-BVN",
            "position_x": -1.0143496017527738e+17,
            "position_y": 7.48544779817332e+16,
            "position_z": 2.0493957281247293e+17,
            "security_status": -0.43953725695610046
        },
        {
            "enabled_sections": 0,
            "eve_constellation_id": 20000031,
            "eve_star_id": null,
            "id": 30000221,
            "name": "X97D-W",
            "position_x": -9.369125062623666e+16,
            "position_y": 7.659489934287712e+16,
            "position_z": 1.9862716370322752e+17,
            "security_status": -0.42764490842819214
        },
        {
            "enabled_sections": 0,
            "eve_constellation_id": 20000032,
            "eve_star_id": null,
            "id": 30000222,
            "name": "0-R5TS",
            "position_x": -6.720104688976184e+16,
            "position_y": 9.820726062584965e+16,
            "position_z": 1.6813978897330374e+17,
            "security_status": -0.21862681210041046
        },
        {
            "enabled_sections": 0,
            "eve_constellation_id": 20000032,
            "eve_star_id": null,
            "id": 30000223,
            "name": "H-UCD1",
            "position_x": -5.754975949296355e+16,
            "position_y": 9.4083421911377e+16,
            "position_z": 1.639054043968806e+17,
            "security_status": -0.17222876846790314
        },
        {
            "enabled_sections": 0,
            "eve_constellation_id": 20000032,
            "eve_star_id": null,
            "id": 30000224,
            "name": "7-K5EL",
            "position_x": -5.329740218412372e+16,
            "position_y": 8.541391847032562e+16,
            "position_z": 1.6198169670184774e+17,
            "security_status": -0.1505020558834076
        },
        {
            "enabled_sections": 0,
            "eve_constellation_id": 20000032,
            "eve_star_id": null,
            "id": 30000225,
            "name": "H-5GUI",
            "position_x": -4.858357676308232e+16,
            "position_y": 8.588768691137819e+16,
            "position_z": 1.4943431646217197e+17,
            "security_status": -0.14051498472690582
        },
        {
            "enabled_sections": 0,
            "eve_constellation_id": 20000032,
            "eve_star_id": null,
            "id": 30000226,
            "name": "FH-TTC",
            "position_x": -3.4991523177557884e+16,
            "position_y": 7.651766196427024e+16,
            "position_z": 1.5356260085612813e+17,
            "security_status": -0.13755293190479279
        },
        {
            "enabled_sections": 0,
            "eve_constellation_id": 20000032,
            "eve_star_id": null,
            "id": 30000227,
            "name": "FMBR-8",
            "position_x": -3.29641504103491e+16,
            "position_y": 8.122172763212576e+16,
            "position_z": 1.5650995240227942e+17,
            "security_status": -0.1384410858154297
        },
        {
            "enabled_sections": 0,
            "eve_constellation_id": 20000033,
            "eve_star_id": null,
            "id": 30000228,
            "name": "3HX-DL",
            "position_x": -9.723385053501976e+16,
            "position_y": 1.3287789401241757e+17,
            "position_z": 2.0679783415956806e+17,
            "security_status": -0.4238191246986389
        },
        {
            "enabled_sections": 0,
            "eve_constellation_id": 20000033,
            "eve_star_id": null,
            "id": 30000229,
            "name": "UH-9ZG",
            "position_x": -1.0286486281793978e+17,
            "position_y": 1.168940443937561e+17,
            "position_z": 2.0509703837255622e+17,
            "security_status": -0.46258360147476196
        },
        {
            "enabled_sections": 0,
            "eve_constellation_id": 20000033,
            "eve_star_id": null,
            "id": 30000230,
            "name": "NFM-0V",
            "position_x": -9.466396315305562e+16,
            "position_y": 1.2297743450738544e+17,
            "position_z": 2.0548406641389357e+17,
            "security_status": -0.49912258982658386
        },
        {
            "enabled_sections": 0,
            "eve_constellation_id": 20000033,
            "eve_star_id": null,
            "id": 30000231,
            "name": "YXIB-I",
            "position_x": -1.0063389717476934e+17,
            "position_y": 1.1743205019205323e+17,
            "position_z": 2.0870834370373254e+17,
            "security_status": -0.5069950819015503
        },
        {
            "enabled_sections": 0,
            "eve_constellation_id": 20000033,
            "eve_star_id": null,
            "id": 30000232,
            "name": "MY-T2P",
            "position_x": -1.0389322239655232e+17,
            "position_y": 1.3350459649576526e+17,
            "position_z": 2.0727385040009978e+17,
            "security_status": -0.3770807683467865
        },
        {
            "enabled_sections": 0,
            "eve_constellation_id": 20000033,
            "eve_star_id": null,
            "id": 30000233,
            "name": "FA-DMO",
            "position_x": -9.612677289011053e+16,
            "position_y": 1.4121547818012246e+17,
            "position_z": 2.104347118270824e+17,
            "security_status": -0.3855828046798706
        },
        {
            "enabled_sections": 0,
            "eve_constellation_id": 20000033,
            "eve_star_id": null,
            "id": 30000234,
            "name": "GEKJ-9",
            "position_x": -1.0945639736247854e+17,
            "position_y": 1.2612282805812136e+17,
            "position_z": 2.0735420168252336e+17,
            "security_status": -0.3863537609577179
        },
        {
            "enabled_sections": 0,
            "eve_constellation_id": 20000033,
            "eve_star_id": null,
            "id": 30000235,
            "name": "Q-R3GP",
            "position_x": -9.340456237107586e+16,
            "position_y": 1.4229320929122278e+17,
            "position_z": 2.0484672963492854e+17,
            "security_status": -0.35513800382614136
        },
        {
            "enabled_sections": 0,
            "eve_constellation_id": 20000033,
            "eve_star_id": null,
            "id": 30000236,
            "name": "N-5QPW",
            "position_x": -8.901112315906034e+16,
            "position_y": 1.4561539140104842e+17,
            "position_z": 2.1163168256125645e+17,
            "security_status": -0.39255788922309875
        },
        {
            "enabled_sections": 0,
            "eve_constellation_id": 20000033,
            "eve_star_id": null,
            "id": 30000237,
            "name": "XV-8JQ",
            "position_x": -1.0703824457148867e+17,
            "position_y": 1.3396172238384699e+17,
            "position_z": 2.146947717357498e+17,
            "security_status": -0.39492926001548767
        },
        {
            "enabled_sections": 0,
            "eve_constellation_id": 20000034,
            "eve_star_id": null,
            "id": 30000238,
            "name": "WBR5-R",
            "position_x": -6.986052573107018e+16,
            "position_y": 1.0751708632563323e+17,
            "position_z": 1.9241666138474176e+17,
            "security_status": -0.5158034563064575
        },
        {
            "enabled_sections": 0,
            "eve_constellation_id": 20000034,
            "eve_star_id": null,
            "id": 30000239,
            "name": "4GYV-Q",
            "position_x": -7.336724638625517e+16,
            "position_y": 9.41430525868132e+16,
            "position_z": 1.9678151196028733e+17,
            "security_status": -0.5365561246871948
        },
        {
            "enabled_sections": 0,
            "eve_constellation_id": 20000034,
            "eve_star_id": null,
            "id": 30000240,
            "name": "4-HWWF",
            "position_x": -7.969077902036126e+16,
            "position_y": 9.80604907314994e+16,
            "position_z": 1.9196732100494138e+17,
            "security_status": -0.4730263650417328
        },
        {
            "enabled_sections": 0,
            "eve_constellation_id": 20000034,
            "eve_star_id": null,
            "id": 30000241,
            "name": "YMJG-4",
            "position_x": -8.475436646700912e+16,
            "position_y": 8.876150003091146e+16,
            "position_z": 1.9013070344741782e+17,
            "security_status": -0.41689354181289673
        },
        {
            "enabled_sections": 0,
            "eve_constellation_id": 20000034,
            "eve_star_id": null,
            "id": 30000242,
            "name": "8TPX-N",
            "position_x": -7.376450041956384e+16,
            "position_y": 1.1009804228610597e+17,
            "position_z": 1.8762795448357245e+17,
            "security_status": -0.43719160556793213
        },
        {
            "enabled_sections": 0,
            "eve_constellation_id": 20000034,
            "eve_star_id": null,
            "id": 30000243,
            "name": "PM-DWE",
            "position_x": -7.332869660429778e+16,
            "position_y": 1.0027604703712107e+17,
            "position_z": 1.868738795474697e+17,
            "security_status": -0.42365285754203796
        },
        {
            "enabled_sections": 0,
            "eve_constellation_id": 20000035,
            "eve_star_id": null,
            "id": 30000244,
            "name": "K8X-6B",
            "position_x": -9.572588458370078e+16,
            "position_y": 1.0039140229632003e+17,
            "position_z": 1.9340958311963696e+17,
            "security_status": -0.43021538853645325
        },
        {
            "enabled_sections": 0,
            "eve_constellation_id": 20000035,
            "eve_star_id": null,
            "id": 30000245,
            "name": "X445-5",
            "position_x": -1.0327219570638714e+17,
            "position_y": 1.0010635349220624e+17,
            "position_z": 1.956742062538738e+17,
            "security_status": -0.4137535095214844
        },
        {
            "enabled_sections": 0,
            "eve_constellation_id": 20000035,
            "eve_star_id": null,
            "id": 30000246,
            "name": "KRUN-N",
            "position_x": -9.28636883290113e+16,
            "position_y": 9.456995243935357e+16,
            "position_z": 1.8805373829837117e+17,
            "security_status": -0.3866967260837555
        },
        {
            "enabled_sections": 0,
            "eve_constellation_id": 20000035,
            "eve_star_id": null,
            "id": 30000247,
            "name": "9OO-LH",
            "position_x": -1.0292725608169162e+17,
            "position_y": 1.0451260728068139e+17,
            "position_z": 2.0194575553646877e+17,
            "security_status": -0.46696433424949646
        },
        {
            "enabled_sections": 0,
            "eve_constellation_id": 20000035,
            "eve_star_id": null,
            "id": 30000248,
            "name": "V-OJEN",
            "position_x": -9.14541346743853e+16,
            "position_y": 8.05576161078799e+16,
            "position_z": 1.8193051739484512e+17,
            "security_status": -0.3168427050113678
        },
        {
            "enabled_sections": 0,
            "eve_constellation_id": 20000035,
            "eve_star_id": null,
            "id": 30000249,
            "name": "EIDI-N",
            "position_x": -8.868589983537856e+16,
            "position_y": 9.85871873727325e+16,
            "position_z": 1.8842898070002662e+17,
            "security_status": -0.40610644221305847
        },
        {
            "enabled_sections": 0,
            "eve_constellation_id": 20000035,
            "eve_star_id": null,
            "id": 30000250,
            "name": "P3EN-E",
            "position_x": -9.12453846616659e+16,
            "position_y": 1.0106610616053371e+17,
            "position_z": 1.7403237329867232e+17,
            "security_status": -0.27487966418266296
        },
        {
            "enabled_sections": 0,
            "eve_constellation_id": 20000035,
            "eve_star_id": null,
            "id": 30000251,
            "name": "49-0LI",
            "position_x": -9.485309986066754e+16,
            "position_y": 7.76958795108427e+16,
            "position_z": 1.8394893690161747e+17,
            "security_status": -0.32010436058044434
        },
        {
            "enabled_sections": 0,
            "eve_constellation_id": 20000035,
            "eve_star_id": null,
            "id": 30000252,
            "name": "IPAY-2",
            "position_x": -8.975241928386658e+16,
            "position_y": 1.0280206482961936e+17,
            "position_z": 1.8202218347957984e+17,
            "security_status": -0.33913370966911316
        },
        {
            "enabled_sections": 0,
            "eve_constellation_id": 20000035,
            "eve_star_id": null,
            "id": 30000253,
            "name": "DAYP-G",
            "position_x": -8.949411367336317e+16,
            "position_y": 9.063551312363094e+16,
            "position_z": 1.883263823678816e+17,
            "security_status": -0.3927612900733948
        },
        {
            "enabled_sections": 0,
            "eve_constellation_id": 20000036,
            "eve_star_id": null,
            "id": 30000254,
            "name": "IFJ-EL",
            "position_x": -9.449321115994264e+16,
            "position_y": 1.163200612151538e+17,
            "position_z": 1.8086442464218435e+17,
            "security_status": -0.29159924387931824
        },
        {
            "enabled_sections": 0,
            "eve_constellation_id": 20000036,
            "eve_star_id": null,
            "id": 30000255,
            "name": "47L-J4",
            "position_x": -9.490358977539482e+16,
            "position_y": 1.1848172553234509e+17,
            "position_z": 1.7800017583241322e+17,
            "security_status": -0.26139241456985474
        },
        {
            "enabled_sections": 0,
            "eve_constellation_id": 20000036,
            "eve_star_id": null,
            "id": 30000256,
            "name": "Q-L07F",
            "position_x": -9.166119997348754e+16,
            "position_y": 1.1197637821902731e+17,
            "position_z": 1.8219380357840083e+17,
            "security_status": -0.3223471939563751
        },
        {
            "enabled_sections": 0,
            "eve_constellation_id": 20000036,
            "eve_star_id": null,
            "id": 30000257,
            "name": "E-D0VZ",
            "position_x": -9.550562849091123e+16,
            "position_y": 1.2422525499196074e+17,
            "position_z": 1.8193799193255123e+17,
            "security_status": -0.27033889293670654
        },
        {
            "enabled_sections": 0,
            "eve_constellation_id": 20000036,
            "eve_star_id": null,
            "id": 30000258,
            "name": "6WW-28",
            "position_x": -8.657691776795629e+16,
            "position_y": 1.2431365662853238e+17,
            "position_z": 1.741495970063086e+17,
            "security_status": -0.22665590047836304
        },
        {
            "enabled_sections": 0,
            "eve_constellation_id": 20000036,
            "eve_star_id": null,
            "id": 30000259,
            "name": "A8A-JN",
            "position_x": -1.0580780762369866e+17,
            "position_y": 1.1265268184753722e+17,
            "position_z": 1.805323668246916e+17,
            "security_status": -0.2706317603588104
        },
        {
            "enabled_sections": 0,
            "eve_constellation_id": 20000036,
            "eve_star_id": null,
            "id": 30000260,
            "name": "S-NJBB",
            "position_x": -1.0734220666049968e+17,
            "position_y": 1.0764027401855534e+17,
            "position_z": 1.80910257684706e+17,
            "security_status": -0.2815867066383362
        },
        {
            "enabled_sections": 0,
            "eve_constellation_id": 20000037,
            "eve_star_id": null,
            "id": 30000261,
            "name": "T-GCGL",
            "position_x": -6.838286991389217e+16,
            "position_y": 1.1145815691614418e+17,
            "position_z": 2.069875373429674e+17,
            "security_status": -0.7339960336685181
        },
        {
            "enabled_sections": 0,
            "eve_constellation_id": 20000037,
            "eve_star_id": null,
            "id": 30000262,
            "name": "0MV-4W",
            "position_x": -6.6449392350513736e+16,
            "position_y": 1.0558835990746474e+17,
            "position_z": 2.0198193641967894e+17,
            "security_status": -0.6627406477928162
        },
        {
            "enabled_sections": 0,
            "eve_constellation_id": 20000037,
            "eve_star_id": null,
            "id": 30000263,
            "name": "TVN-FM",
            "position_x": -7.15928528856505e+16,
            "position_y": 1.0395744663596437e+17,
            "position_z": 2.020462498157333e+17,
            "security_status": -0.6457986831665039
        },
        {
            "enabled_sections": 0,
            "eve_constellation_id": 20000037,
            "eve_star_id": null,
            "id": 30000264,
            "name": "V-NL3K",
            "position_x": -6.406246929686314e+16,
            "position_y": 1.1807451983799616e+17,
            "position_z": 2.0884654908673645e+17,
            "security_status": -0.7635342478752136
        },
        {
            "enabled_sections": 0,
            "eve_constellation_id": 20000037,
            "eve_star_id": null,
            "id": 30000265,
            "name": "AZBR-2",
            "position_x": -7.32720637374535e+16,
            "position_y": 9.753484510846136e+16,
            "position_z": 2.100544520683208e+17,
            "security_status": -0.7090482115745544
        },
        {
            "enabled_sections": 0,
            "eve_constellation_id": 20000037,
            "eve_star_id": null,
            "id": 30000266,
            "name": "Z-8Q65",
            "position_x": -7.4858990530627e+16,
            "position_y": 1.0069701580757278e+17,
            "position_z": 2.169115166289473e+17,
            "security_status": -0.7746850848197937
        },
        {
            "enabled_sections": 0,
            "eve_constellation_id": 20000037,
            "eve_star_id": null,
            "id": 30000267,
            "name": "0J3L-V",
            "position_x": -7.2917148253217e+16,
            "position_y": 9.648093777957267e+16,
            "position_z": 2.217417307575346e+17,
            "security_status": -0.7907073497772217
        },
        {
            "enabled_sections": 0,
            "eve_constellation_id": 20000038,
            "eve_star_id": null,
            "id": 30000268,
            "name": "H-NOU5",
            "position_x": -5.72203611688299e+16,
            "position_y": 1.035731903069827e+17,
            "position_z": 1.5808808042841306e+17,
            "security_status": -0.14060620963573456
        },
        {
            "enabled_sections": 0,
            "eve_constellation_id": 20000038,
            "eve_star_id": null,
            "id": 30000269,
            "name": "KX-2UI",
            "position_x": -5.307454177390158e+16,
            "position_y": 1.2026505956342333e+17,
            "position_z": 1.6598495914961485e+17,
            "security_status": -0.15827371180057526
        },
        {
            "enabled_sections": 0,
            "eve_constellation_id": 20000038,
            "eve_star_id": null,
            "id": 30000270,
            "name": "MO-FIF",
            "position_x": -4.769645358104202e+16,
            "position_y": 1.2799685288937549e+17,
            "position_z": 1.6276216793907008e+17,
            "security_status": -0.11322387307882309
        },
        {
            "enabled_sections": 0,
            "eve_constellation_id": 20000038,
            "eve_star_id": null,
            "id": 30000271,
            "name": "97-M96",
            "position_x": -5.261778571075787e+16,
            "position_y": 1.1993573495180715e+17,
            "position_z": 1.6990510414756538e+17,
            "security_status": -0.1888732761144638
        },
        {
            "enabled_sections": 0,
            "eve_constellation_id": 20000038,
            "eve_star_id": null,
            "id": 30000272,
            "name": "MA-XAP",
            "position_x": -5.073276757764255e+16,
            "position_y": 1.2991485889745384e+17,
            "position_z": 1.592509301910225e+17,
            "security_status": -0.09721006453037262
        },
        {
            "enabled_sections": 0,
            "eve_constellation_id": 20000038,
            "eve_star_id": null,
            "id": 30000273,
            "name": "C-J7CR",
            "position_x": -4.992023895955448e+16,
            "position_y": 1.2516255344033398e+17,
            "position_z": 1.5397470096925133e+17,
            "security_status": -0.08548019826412201
        },
        {
            "enabled_sections": 0,
            "eve_constellation_id": 20000039,
            "eve_star_id": null,
            "id": 30000274,
            "name": "Q-EHMJ",
            "position_x": -4.770889397836401e+16,
            "position_y": 8.958532669453858e+16,
            "position_z": 1.4653940439084896e+17,
            "security_status": -0.1533721387386322
        },
        {
            "enabled_sections": 0,
            "eve_constellation_id": 20000039,
            "eve_star_id": null,
            "id": 30000275,
            "name": "XSQ-TF",
            "position_x": -3.818522548769773e+16,
            "position_y": 9.67052016309406e+16,
            "position_z": 1.5064529459825104e+17,
            "security_status": -0.155434250831604
        },
        {
            "enabled_sections": 0,
            "eve_constellation_id": 20000039,
            "eve_star_id": null,
            "id": 30000276,
            "name": "H-1EOH",
            "position_x": -4.093674193364147e+16,
            "position_y": 9.965874564322565e+16,
            "position_z": 1.4519990245856742e+17,
            "security_status": -0.17127500474452972
        },
        {
            "enabled_sections": 0,
            "eve_constellation_id": 20000039,
            "eve_star_id": null,
            "id": 30000277,
            "name": "IR-DYY",
            "position_x": -3.5763846727252796e+16,
            "position_y": 1.0615695620179075e+17,
            "position_z": 1.4543836670215046e+17,
            "security_status": -0.15933893620967865
        },
        {
            "enabled_sections": 0,
            "eve_constellation_id": 20000039,
            "eve_star_id": null,
            "id": 30000278,
            "name": "C-DHON",
            "position_x": -2.7513266398246044e+16,
            "position_y": 1.1954935373452429e+17,
            "position_z": 1.3713430222902538e+17,
            "security_status": -0.1239549070596695
        },
        {
            "enabled_sections": 0,
            "eve_constellation_id": 20000039,
            "eve_star_id": null,
            "id": 30000279,
            "name": "F-D49D",
            "position_x": -2.8567257167621056e+16,
            "position_y": 1.0429385604476842e+17,
            "position_z": 1.4481187388843443e+17,
            "security_status": -0.19093754887580872
        },
        {
            "enabled_sections": 0,
            "eve_constellation_id": 20000040,
            "eve_star_id": null,
            "id": 30000280,
            "name": "MQ-O27",
            "position_x": -3.0335960161359944e+16,
            "position_y": 7.017585588766732e+16,
            "position_z": 1.5543466361393293e+17,
            "security_status": -0.12899361550807953
        },
        {
            "enabled_sections": 0,
            "eve_constellation_id": 20000040,
            "eve_star_id": null,
            "id": 30000281,
            "name": "H-EY0P",
            "position_x": -2.3582393305140236e+16,
            "position_y": 6.649209329513798e+16,
            "position_z": 1.5204278305389203e+17,
            "security_status": -0.1560862958431244
        },
        {
            "enabled_sections": 0,
            "eve_constellation_id": 20000040,
            "eve_star_id": null,
            "id": 30000282,
            "name": "UNAG-6",
            "position_x": -1.5005910065258954e+16,
            "position_y": 6.77113072564961e+16,
            "position_z": 1.512815425665677e+17,
            "security_status": -0.2235419601202011
        },
        {
            "enabled_sections": 0,
            "eve_constellation_id": 20000040,
            "eve_star_id": null,
            "id": 30000283,
            "name": "E-SCTX",
            "position_x": -1.4182192630452528e+16,
            "position_y": 6.460126496258751e+16,
            "position_z": 1.4412171507974022e+17,
            "security_status": -0.208451047539711
        },
        {
            "enabled_sections": 0,
            "eve_constellation_id": 20000040,
            "eve_star_id": null,
            "id": 30000284,
            "name": "S6QX-N",
            "position_x": -7618376777025582.0,
            "position_y": 5.647595656760529e+16,
            "position_z": 1.425583007109506e+17,
            "security_status": -0.2176908701658249
        },
        {
            "enabled_sections": 0,
            "eve_constellation_id": 20000040,
            "eve_star_id": null,
            "id": 30000285,
            "name": "IT-YAU",
            "position_x": -9283813806329080.0,
            "position_y": 5.108150310971077e+16,
            "position_z": 1.4060131072318827e+17,
            "security_status": -0.15945971012115479
        },
        {
            "enabled_sections": 0,
            "eve_constellation_id": 20000040,
            "eve_star_id": null,
            "id": 30000286,
            "name": "1VK-6B",
            "position_x": -863942619663614.0,
            "position_y": 5.135402925326397e+16,
            "position_z": 1.3675517542183853e+17,
            "security_status": -0.16913902759552002
        },
        {
            "enabled_sections": 0,
            "eve_constellation_id": 20000040,
            "eve_star_id": null,
            "id": 30000287,
            "name": "7-PO3P",
            "position_x": -9636606845534770.0,
            "position_y": 6.899559420621023e+16,
            "position_z": 1.4774599785684454e+17,
            "security_status": -0.25789085030555725
        },
        {
            "enabled_sections": 0,
            "eve_constellation_id": 20000040,
            "eve_star_id": null,
            "id": 30000288,
            "name": "1W-0KS",
            "position_x": -1.1476118395385728e+16,
            "position_y": 4.623248492736122e+16,
            "position_z": 1.3796712465891477e+17,
            "security_status": -0.10255595296621323
        },
        {
            "enabled_sections": 0,
            "eve_constellation_id": 20000041,
            "eve_star_id": null,
            "id": 30000289,
            "name": "669-IX",
            "position_x": -6.1108062551960456e+16,
            "position_y": 1.0824641610854134e+17,
            "position_z": 1.747309188923242e+17,
            "security_status": -0.2701582908630371
        },
        {
            "enabled_sections": 0,
            "eve_constellation_id": 20000041,
            "eve_star_id": null,
            "id": 30000290,
            "name": "0R-F2F",
            "position_x": -5.360684878886682e+16,
            "position_y": 9.617182661359374e+16,
            "position_z": 1.808905266702558e+17,
            "security_status": -0.3128408193588257
        },
        {
            "enabled_sections": 0,
            "eve_constellation_id": 20000041,
            "eve_star_id": null,
            "id": 30000291,
            "name": "R-P7KL",
            "position_x": -5.579750268961014e+16,
            "position_y": 1.1099122795474042e+17,
            "position_z": 1.7528705099690266e+17,
            "security_status": -0.26398128271102905
        },
        {
            "enabled_sections": 0,
            "eve_constellation_id": 20000041,
            "eve_star_id": null,
            "id": 30000292,
            "name": "2DWM-2",
            "position_x": -5.297909060048836e+16,
            "position_y": 1.0371588447762018e+17,
            "position_z": 1.695801383125693e+17,
            "security_status": -0.20403890311717987
        },
        {
            "enabled_sections": 0,
            "eve_constellation_id": 20000041,
            "eve_star_id": null,
            "id": 30000293,
            "name": "XF-PWO",
            "position_x": -5.376258181597036e+16,
            "position_y": 1.1181122859539882e+17,
            "position_z": 1.7974442104945456e+17,
            "security_status": -0.31220847368240356
        },
        {
            "enabled_sections": 0,
            "eve_constellation_id": 20000041,
            "eve_star_id": null,
            "id": 30000294,
            "name": "1N-FJ8",
            "position_x": -5.000671480191381e+16,
            "position_y": 9.748807407025163e+16,
            "position_z": 1.7310664883687578e+17,
            "security_status": -0.22329489886760712
        },
        {
            "enabled_sections": 0,
            "eve_constellation_id": 20000042,
            "eve_star_id": null,
            "id": 30000295,
            "name": "VI2K-J",
            "position_x": -2.560085879214965e+16,
            "position_y": 8.984183996947072e+16,
            "position_z": 1.6055379511677667e+17,
            "security_status": -0.1317824274301529
        },
        {
            "enabled_sections": 0,
            "eve_constellation_id": 20000042,
            "eve_star_id": null,
            "id": 30000296,
            "name": "ZLZ-1Z",
            "position_x": -1.6765013317233144e+16,
            "position_y": 8.06219305496704e+16,
            "position_z": 1.6814393822470192e+17,
            "security_status": -0.17107246816158295
        },
        {
            "enabled_sections": 0,
            "eve_constellation_id": 20000042,
            "eve_star_id": null,
            "id": 30000297,
            "name": "6Y-WRK",
            "position_x": -2.0854961276898684e+16,
            "position_y": 8.107675304732282e+16,
            "position_z": 1.7371429345559466e+17,
            "security_status": -0.1556599736213684
        },
        {
            "enabled_sections": 0,
            "eve_constellation_id": 20000042,
            "eve_star_id": null,
            "id": 30000298,
            "name": "RVCZ-C",
            "position_x": -1.7709740467577708e+16,
            "position_y": 8.737010403243386e+16,
            "position_z": 1.6077167495394653e+17,
            "security_status": -0.1424955129623413
        },
        {
            "enabled_sections": 0,
            "eve_constellation_id": 20000042,
            "eve_star_id": null,
            "id": 30000299,
            "name": "5T-KM3",
            "position_x": -1.869500190456961e+16,
            "position_y": 8.194834886711542e+16,
            "position_z": 1.7994513004837187e+17,
            "security_status": -0.16597440838813782
        },
        {
            "enabled_sections": 0,
            "eve_constellation_id": 20000042,
            "eve_star_id": null,
            "id": 30000300,
            "name": "LS9B-9",
            "position_x": -1.3820118951897786e+16,
            "position_y": 7.963424263956928e+16,
            "position_z": 1.5597830382339053e+17,
            "security_status": -0.19892960786819458
        },
        {
            "enabled_sections": 0,
            "eve_constellation_id": 20000043,
            "eve_star_id": null,
            "id": 30000301,
            "name": "1-GBBP",
            "position_x": -5.762497203050201e+16,
            "position_y": 1.207054872896871e+17,
            "position_z": 2.0979346121540458e+17,
            "security_status": -0.7717415690422058
        },
        {
            "enabled_sections": 0,
            "eve_constellation_id": 20000043,
            "eve_star_id": null,
            "id": 30000302,
            "name": "C-FP70",
            "position_x": -5.2563091368088776e+16,
            "position_y": 1.2808450780770947e+17,
            "position_z": 2.1455696362139178e+17,
            "security_status": -0.7587705850601196
        },
        {
            "enabled_sections": 0,
            "eve_constellation_id": 20000043,
            "eve_star_id": null,
            "id": 30000303,
            "name": "T-ZWA1",
            "position_x": -4.879932679831799e+16,
            "position_y": 1.1869026050234246e+17,
            "position_z": 2.103121912030368e+17,
            "security_status": -0.7516916394233704
        },
        {
            "enabled_sections": 0,
            "eve_constellation_id": 20000043,
            "eve_star_id": null,
            "id": 30000304,
            "name": "ZA0L-U",
            "position_x": -6.0462026323117e+16,
            "position_y": 1.3008500445710616e+17,
            "position_z": 2.2277454121715738e+17,
            "security_status": -0.8051050901412964
        },
        {
            "enabled_sections": 0,
            "eve_constellation_id": 20000043,
            "eve_star_id": null,
            "id": 30000305,
            "name": "G96R-F",
            "position_x": -6.051162238339112e+16,
            "position_y": 1.2345632344555158e+17,
            "position_z": 2.2796572549962832e+17,
            "security_status": -0.8733299374580383
        },
        {
            "enabled_sections": 0,
            "eve_constellation_id": 20000043,
            "eve_star_id": null,
            "id": 30000306,
            "name": "Y-ZXIO",
            "position_x": -5.618099945313555e+16,
            "position_y": 1.1613234855854539e+17,
            "position_z": 2.2668971299861952e+17,
            "security_status": -0.9004377722740173
        },
        {
            "enabled_sections": 0,
            "eve_constellation_id": 20000044,
            "eve_star_id": null,
            "id": 30000307,
            "name": "B-E3KQ",
            "position_x": -1.0532836861876138e+16,
            "position_y": 7.469971383795032e+16,
            "position_z": 1.7732461297172032e+17,
            "security_status": -0.25546994805336
        },
        {
            "enabled_sections": 0,
            "eve_constellation_id": 20000044,
            "eve_star_id": null,
            "id": 30000308,
            "name": "Y5J-EU",
            "position_x": -8144756027314122.0,
            "position_y": 7.928926792578258e+16,
            "position_z": 1.81348518680572e+17,
            "security_status": -0.21875311434268951
        },
        {
            "enabled_sections": 0,
            "eve_constellation_id": 20000044,
            "eve_star_id": null,
            "id": 30000309,
            "name": "O-LR1H",
            "position_x": -7558181365846444.0,
            "position_y": 7.958118483074758e+16,
            "position_z": 1.7436443111647366e+17,
            "security_status": -0.24716418981552124
        },
        {
            "enabled_sections": 0,
            "eve_constellation_id": 20000044,
            "eve_star_id": null,
            "id": 30000310,
            "name": "G5ED-Y",
            "position_x": -804350698341394.0,
            "position_y": 8.134387291404184e+16,
            "position_z": 1.777148191631501e+17,
            "security_status": -0.26660633087158203
        },
        {
            "enabled_sections": 0,
            "eve_constellation_id": 20000044,
            "eve_star_id": null,
            "id": 30000311,
            "name": "BR-6XP",
            "position_x": 2385519048868765.0,
            "position_y": 8.547777608557301e+16,
            "position_z": 1.6952329945452963e+17,
            "security_status": -0.2478877604007721
        },
        {
            "enabled_sections": 0,
            "eve_constellation_id": 20000044,
            "eve_star_id": null,
            "id": 30000312,
            "name": "8-TFDX",
            "position_x": 3988527639584436.0,
            "position_y": 8.860620688751256e+16,
            "position_z": 1.754214161149929e+17,
            "security_status": -0.19076597690582275
        },
        {
            "enabled_sections": 0,
            "eve_constellation_id": 20000044,
            "eve_star_id": null,
            "id": 30000313,
            "name": "UL-4ZW",
            "position_x": 7503501736953184.0,
            "position_y": 7.885865091822418e+16,
            "position_z": 1.726815712778246e+17,
            "security_status": -0.40813732147216797
        },
        {
            "enabled_sections": 0,
            "eve_constellation_id": 20000045,
            "eve_star_id": null,
            "id": 30000314,
            "name": "A-QRQT",
            "position_x": 357359445750513.0,
            "position_y": 9.414219549820843e+16,
            "position_z": 1.6779937379834333e+17,
            "security_status": -0.1278022825717926
        },
        {
            "enabled_sections": 0,
            "eve_constellation_id": 20000045,
            "eve_star_id": null,
            "id": 30000315,
            "name": "WMBZ-U",
            "position_x": 4805888774421958.0,
            "position_y": 9.944076648889434e+16,
            "position_z": 1.668736640499832e+17,
            "security_status": -0.08659899234771729
        },
        {
            "enabled_sections": 0,
            "eve_constellation_id": 20000045,
            "eve_star_id": null,
            "id": 30000316,
            "name": "PX5-LR",
            "position_x": 1.0139317338855618e+16,
            "position_y": 9.086160132447504e+16,
            "position_z": 1.6215442032475354e+17,
            "security_status": -0.17164425551891327
        },
        {
            "enabled_sections": 0,
            "eve_constellation_id": 20000045,
            "eve_star_id": null,
            "id": 30000317,
            "name": "A3-RQ3",
            "position_x": 1.5816890990446272e+16,
            "position_y": 8.315577671112877e+16,
            "position_z": 1.5957408624618624e+17,
            "security_status": -0.29628366231918335
        },
        {
            "enabled_sections": 0,
            "eve_constellation_id": 20000045,
            "eve_star_id": null,
            "id": 30000318,
            "name": "9-GBPD",
            "position_x": 1.7939209149046936e+16,
            "position_y": 8.925829779772872e+16,
            "position_z": 1.5586362557851552e+17,
            "security_status": -0.15962332487106323
        },
        {
            "enabled_sections": 0,
            "eve_constellation_id": 20000045,
            "eve_star_id": null,
            "id": 30000319,
            "name": "LS-JEP",
            "position_x": 2.1832867724436708e+16,
            "position_y": 8.164317528153253e+16,
            "position_z": 1.5361161204843366e+17,
            "security_status": -0.2434772402048111
        },
        {
            "enabled_sections": 0,
            "eve_constellation_id": 20000046,
            "eve_star_id": null,
            "id": 30000320,
            "name": "R-RSZZ",
            "position_x": 5909457212044153.0,
            "position_y": 7.731434566840226e+16,
            "position_z": 1.7251973576140278e+17,
            "security_status": -0.436438649892807
        },
        {
            "enabled_sections": 0,
            "eve_constellation_id": 20000046,
            "eve_star_id": null,
            "id": 30000321,
            "name": "MGAM-4",
            "position_x": 7181150794870746.0,
            "position_y": 7.30424399854426e+16,
            "position_z": 1.660313513110514e+17,
            "security_status": -0.5753650665283203
        },
        {
            "enabled_sections": 0,
            "eve_constellation_id": 20000046,
            "eve_star_id": null,
            "id": 30000322,
            "name": "VORM-W",
            "position_x": 5724019150044154.0,
            "position_y": 7.310796761876765e+16,
            "position_z": 1.6841627330741923e+17,
            "security_status": -0.5585461854934692
        },
        {
            "enabled_sections": 0,
            "eve_constellation_id": 20000046,
            "eve_star_id": null,
            "id": 30000323,
            "name": "7G-H7D",
            "position_x": 2143875275812082.0,
            "position_y": 7.990010356896646e+16,
            "position_z": 1.6567229393228918e+17,
            "security_status": -0.35780754685401917
        },
        {
            "enabled_sections": 0,
            "eve_constellation_id": 20000046,
            "eve_star_id": null,
            "id": 30000324,
            "name": "Q3-BAY",
            "position_x": 1.382510964054175e+16,
            "position_y": 6.2435257483538936e+16,
            "position_z": 1.636346583890552e+17,
            "security_status": -0.8099135160446167
        },
        {
            "enabled_sections": 0,
            "eve_constellation_id": 20000046,
            "eve_star_id": null,
            "id": 30000325,
            "name": "JZV-F4",
            "position_x": 1.2844369894349774e+16,
            "position_y": 5.792833749511285e+16,
            "position_z": 1.6706885542755082e+17,
            "security_status": -0.8524244427680969
        },
        {
            "enabled_sections": 0,
            "eve_constellation_id": 20000322,
            "eve_star_id": null,
            "id": 30002187,
            "name": "Amarr",
            "position_x": -2.0474870725000893e+17,
            "position_y": 4.023837993657142e+16,
            "position_z": -5.762127890242104e+16,
            "security_status": 1.0
        },
        {
            "enabled_sections": 0,
            "eve_constellation_id": 20000367,
            "eve_star_id": null,
            "id": 30002510,
            "name": "Rens",
            "position_x": -9.91223410909671e+16,
            "position_y": 4.0335100631489176e+16,
            "position_z": -2867728819583846.0,
            "security_status": 0.8945818543434143
        }
    ],
    "EveType": [
        {
            "capacity": 450.0,
            "enabled_sections": 0,
            "eve_graphic_id": null,
            "eve_group_id": 26,
            "eve_market_group_id": null,
            "icon_id": null,
            "id": 621,
            "mass": 11910000.0,
            "name": "Caracal",
            "packaged_volume": 10000.0,
            "portion_size": 1,
            "published": true,
            "radius": 202.0,
            "volume": 92000.0
        },
        {
            "capacity": 750.0,
            "enabled_sections": 0,
            "eve_graphic_id": null,
            "eve_group_id": 898,
            "eve_market_group_id": null,
            "icon_id": null,
            "id": 22436,
            "mass": 151100000.0,
            "name": "Widow",
            "packaged_volume": 50000.0,
            "portion_size": 1,
            "published": true,
            "radius": 250.0,
            "volume": 468000.0
        },
        {
            "capacity": 0.0,
            "enabled_sections": 0,
            "eve_graphic_id": null,
            "eve_group_id": 1875,
            "eve_market_group_id": null,
            "icon_id": 21481,
            "id": 44992,
            "mass": 0.0,
            "name": "PLEX",
            "packaged_volume": 0.0002,
            "portion_size": 1,
            "published": true,
            "radius": 1.0,
            "volume": 0.0002
        }
    ]
}
